id | user_id | amount | order_date | payment_date | export_date | credit_date | firstname | lastname | address | address2 | zipcode | city | state | country |  | billingfirstname | billinglastname | billingaddress | billingaddress2 | billingzipcode | billingcity | billingstate | billingcountry
61 | 1 | 122 | 0000-00-00 | 0000-00-00 |  |  | Simon | Olsen | Legevegen 16 |  | 5542 | Karmsund | Rogaland | Norge | Simon | Olsen | Legevegen 16 |  | 5542 | Karmsund | Rogaland | Norge
62 | 1 | 122 | 0000-00-00 | 0000-00-00 |  |  | Simon | Olsen | Legevegen 16 |  | 5542 | Karmsund | Rogaland | Norge | Simon | Olsen | Legevegen 16 |  | 5542 | Karmsund | Rogaland | Norge
63 | 1 | 122 | 0000-00-00 | 0000-00-00 |  |  | Simon | Olsen | Legevegen 16 |  | 5542 | Karmsund | Rogaland | Norge | Simon | Olsen | Legevegen 16 |  | 5542 | Karmsund | Rogaland | Norge
64 | 1 | 122 | 0000-00-00 | 0000-00-00 |  |  | Simon | Olsen | Legevegen 16 |  | 5542 | Karmsund | Rogaland | Norge | Simon | Olsen | Legevegen 16 |  | 5542 | Karmsund | Rogaland | Norge
65 | 1 | 122 | 0000-00-00 | 0000-00-00 |  |  | Simon | Olsen | Legevegen 16 |  | 5542 | Karmsund | Rogaland | Norge | Simon | Olsen | Legevegen 16 |  | 5542 | Karmsund | Rogaland | Norge
66 | 1 | 122 | 0000-00-00 | 0000-00-00 |  |  | Simon | Olsen | Legevegen 16 |  | 5542 | Karmsund | Rogaland | Norge | Simon | Olsen | Legevegen 16 |  | 5542 | Karmsund | Rogaland | Norge
67 | 1 | 122 | 0000-00-00 | 0000-00-00 |  |  | Simon | Olsen | Legevegen 16 |  | 5542 | Karmsund | Rogaland | Norge | Simon | Olsen | Legevegen 16 |  | 5542 | Karmsund | Rogaland | Norge
68 | 1 | 122 | 0000-00-00 | 0000-00-00 |  |  | Simon | Olsen | Legevegen 16 |  | 5542 | Karmsund | Rogaland | Norge | Simon | Olsen | Legevegen 16 |  | 5542 | Karmsund | Rogaland | Norge
69 | 1 | 122 | 0000-00-00 | 0000-00-00 |  |  | Simon | Olsen | Legevegen 16 |  | 5542 | Karmsund | Rogaland | Norge | Simon | Olsen | Legevegen 16 |  | 5542 | Karmsund | Rogaland | Norge
70 | 1 | 122 | 0000-00-00 | 0000-00-00 |  |  | Simon | Olsen | Legevegen 16 |  | 5542 | Karmsund | Rogaland | Norge | Simon | Olsen | Legevegen 16 |  | 5542 | Karmsund | Rogaland | Norge
71 | 1 | 122 | 0000-00-00 | 0000-00-00 |  |  | Simon | Olsen | Legevegen 16 |  | 5542 | Karmsund | Rogaland | Norge | Simon | Olsen | Legevegen 16 |  | 5542 | Karmsund | Rogaland | Norge
72 | 1 | 122 | 0000-00-00 | 0000-00-00 |  |  | Simon | Olsen | Legevegen 16 |  | 5542 | Karmsund | Rogaland | Norge | Simon | Olsen | Legevegen 16 |  | 5542 | Karmsund | Rogaland | Norge
73 | 1 | 122 | 0000-00-00 | 0000-00-00 |  |  | Simon | Olsen | Legevegen 16 |  | 5542 | Karmsund | Rogaland | Norge | Simon | Olsen | Legevegen 16 |  | 5542 | Karmsund | Rogaland | Norge
74 | 1 | 122 | 0000-00-00 | 0000-00-00 |  |  | Simon | Olsen | Legevegen 16 |  | 5542 | Karmsund | Rogaland | Norge | Simon | Olsen | Legevegen 16 |  | 5542 | Karmsund | Rogaland | Norge
75 | 2 | 122 | 0000-00-00 | 0000-00-00 |  |  | Per | Olsen | Legevegen 16 |  | 5542 | Karmsund | Rogaland | Norge | Per | Olsen | Legevegen 16 |  | 5542 | Karmsund | Rogaland | Norge
76 | 2 | 122 | 0000-00-00 | 0000-00-00 |  |  | Per | Olsen | Legevegen 16 |  | 5542 | Karmsund | Rogaland | Norge | Per | Olsen | Legevegen 16 |  | 5542 | Karmsund | Rogaland | Norge
77 | 2 | 48 | 0000-00-00 | 0000-00-00 |  |  | Per | Olsen | Legevegen 16 |  | 5542 | Karmsund | Rogaland | Norge | Per | Olsen | Legevegen 16 |  | 5542 | Karmsund | Rogaland | Norge
78 | 1 | 148 | 0000-00-00 | 0000-00-00 |  |  | Simon | Olsen | Legevegen 16 |  | 5542 | Karmsund | Rogaland | Norge | Simon | Olsen | Legevegen 16 |  | 5542 | Karmsund | Rogaland | Norge
79 | 1 | 148 | 0000-00-00 | 0000-00-00 |  |  | Simon | Olsen | Legevegen 16 |  | 5542 | Karmsund | Rogaland | Norge | Simon | Olsen | Legevegen 16 |  | 5542 | Karmsund | Rogaland | Norge
80 | 1 | 121 | 0000-00-00 | 0000-00-00 |  |  | Simon | Olsen | Legevegen 16 |  | 5542 | Karmsund | Rogaland | Norge | Simon | Olsen | Legevegen 16 |  | 5542 | Karmsund | Rogaland | Norge
81 | 2 | 3 | 0000-00-00 | 0000-00-00 |  |  | Per | Olsen | Legevegen 16 |  | 5542 | Karmsund | Rogaland | Norge | Per | Olsen | Legevegen 16 |  | 5542 | Karmsund | Rogaland | Norge
82 | 2 | 3 | 0000-00-00 | 0000-00-00 |  |  | Per | Olsen | Legevegen 16 |  | 5542 | Karmsund | Rogaland | Norge | Per | Olsen | Legevegen 16 |  | 5542 | Karmsund | Rogaland | Norge
83 | 3 | 48 |  |  |  |  | test | test |  |  | 1234 | test | test | test | test | test |  |  | 1234 | test | test | test
84 | 3 | 48 |  |  |  |  | test | test |  |  | 1234 | test | test | test | test | test |  |  | 1234 | test | test | test
85 | 3 | 73 |  |  |  |  | test | test |  |  | 1234 | test | test | test | test | test |  |  | 1234 | test | test | test
86 | 1 | 141 |  |  |  |  | Simon | Olsen | Legevegen 16 |  | 5542 | Karmsund | Rogaland | Norge | Simon | Olsen | Legevegen 16 |  | 5542 | Karmsund | Rogaland | Norge
87 | 1 | 141 |  |  |  |  | Simon | Olsen | Legevegen 16 |  | 5542 | Karmsund | Rogaland | Norge | Simon | Olsen | Legevegen 16 |  | 5542 | Karmsund | Rogaland | Norge
88 | 1 | 141 |  |  |  |  | Simon | Olsen | Legevegen 16 |  | 5542 | Karmsund | Rogaland | Norge | Simon | Olsen | Legevegen 16 |  | 5542 | Karmsund | Rogaland | Norge
89 | 1 | 141 |  |  |  |  | Simon | Olsen | Legevegen 16 |  | 5542 | Karmsund | Rogaland | Norge | Simon | Olsen | Legevegen 16 |  | 5542 | Karmsund | Rogaland | Norge
90 | 1 | 141 |  |  |  |  | Simon | Olsen | Legevegen 16 |  | 5542 | Karmsund | Rogaland | Norge | Simon | Olsen | Legevegen 16 |  | 5542 | Karmsund | Rogaland | Norge
91 | 3 | 1 |  |  |  |  | test | test |  |  | 1234 | test | test | test | test | test |  |  | 1234 | test | test | test
92 | 3 | 17 |  |  |  |  | test | test |  |  | 1234 | test | test | test | test | test |  |  | 1234 | test | test | test
93 | 3 | 48 |  |  |  |  | test | test |  |  | 1234 | test | test | test | test | test |  |  | 1234 | test | test | test
94 | 3 | 48 |  |  |  |  | test | test |  |  | 1234 | test | test | test | test | test |  |  | 1234 | test | test | test
95 | 3 | 48 |  |  |  |  | test | test |  |  | 1234 | test | test | test | test | test |  |  | 1234 | test | test | test
96 | 3 | 19 |  |  |  |  | test | test |  |  | 1234 | test | test | test | test | test |  |  | 1234 | test | test | test
97 | 2 | 470 |  |  |  |  | Per | Olsen | Legevegen 16 |  | 5542 | Karmsund | Rogaland | Norge | Per | Olsen | Legevegen 16 |  | 5542 | Karmsund | Rogaland | Norge
98 | 1 | 105 | 2014-08-29 |  |  |  | Simon | Olsen | Legevegen 16 |  | 5542 | Karmsund | Rogaland | Norge | Simon | Olsen |  |  | 5542 | Karmsund | Rogaland | Norge
99 | 1 | 105 | 2014-08-29 |  |  |  | Simon | Olsen | Legevegen 16 |  | 5542 | Karmsund | Rogaland | Norge | Simon | Olsen |  |  | 5542 | Karmsund | Rogaland | Norge
100 | 1 | 13626 | 2014-08-29 |  |  |  | Simon | Olsen | Legevegen 16 |  | 5542 | Karmsund | Rogaland | Norge | Simon | Olsen |  |  | 5542 | Karmsund | Rogaland | Norge
101 | 1 | 105 | 2014-08-29 |  |  |  | Simon | Olsen | Legevegen 16 |  | 5542 | Karmsund | Rogaland | Norge | Simon | Olsen |  |  | 5542 | Karmsund | Rogaland | Norge
102 | 1 | 226 | 2014-08-29 |  |  |  | Simon | Olsen | Legevegen 16 |  | 5542 | Karmsund | Rogaland | Norge | Simon | Olsen |  |  | 5542 | Karmsund | Rogaland | Norge
103 | 1 | 105 | 2014-08-29 |  |  |  | Simon | Olsen | Legevegen 16 |  | 5542 | Karmsund | Rogaland | Norge | Simon | Olsen |  |  | 5542 | Karmsund | Rogaland | Norge
104 | 1 | 105 | 2014-08-29 |  |  |  | Simon | Olsen | Legevegen 16 |  | 5542 | Karmsund | Rogaland | Norge | Simon | Olsen |  |  | 5542 | Karmsund | Rogaland | Norge
105 | 1 | 226 | 2014-08-29 | 2014-08-29 |  |  | Simon | Olsen | Legevegen 16 |  | 5542 | Karmsund | Rogaland | Norge | Simon | Olsen |  |  | 5542 | Karmsund | Rogaland | Norge
106 | 2 | 226 | 2014-08-29 | 2014-08-29 |  |  | Per | Olsen | Legevegen 16 |  | 5542 | Karmsund | Rogaland | Norge | Per | Olsen | Legevegen 16 |  | 5542 | Karmsund | Rogaland | Norge
107 | 3 | 147 | 2014-08-29 | 2014-08-29 |  |  | test | test |  |  | 1234 | test | test | test | test | test |  |  | 1234 | test | test | test
108 | 3 | 91 | 2014-08-29 |  |  |  | test | test |  |  | 1234 | test | test | test | test | test |  |  | 1234 | test | test | test
109 | 2 | 91 | 2014-08-30 |  |  |  | Per | Olsen | Legevegen 16 |  | 5542 | Karmsund | Rogaland | Norge | Per | Olsen | Legevegen 16 |  | 5542 | Karmsund | Rogaland | Norge
110 | 2 | 91 | 2014-08-30 |  |  |  | Per | Olsen | Legevegen 16 |  | 5542 | Karmsund | Rogaland | Norge | Per | Olsen | Legevegen 16 |  | 5542 | Karmsund | Rogaland | Norge